pll.sim/sim_1/behav/xsim/digital_pll.vcd
$date
   Wed Nov 26 18:44:20 2025
$end

$version
  2025.1.0
  $dumpfile ("digital_pll.vcd") 
$end

$timescale
  1ps
$end

$scope module digital_pll_tb $end
$var reg 1 ! clk $end
$var reg 1 " rst $end
$var reg 1 # ref_clk $end
$var wire 1 $ dpll_clk $end
$scope module DUT $end
$var wire 1 % clk $end
$var wire 1 & rst $end
$var wire 1 ' ref_clk $end
$var wire 1 $ dpll_clk $end
$var wire 1 ( fb_clk $end
$var wire 1 ) pd_out $end
$var wire 16 * ctrl_word [15:0] $end
$scope module PD $end
$var wire 1 % clk $end
$var wire 1 ' ref_clk $end
$var wire 1 ( fb_clk $end
$var reg 1 + pd_out $end
$upscope $end
$scope module LF $end
$var wire 1 % clk $end
$var wire 1 & rst $end
$var wire 1 ) pd_in $end
$var reg 16 , ctrl_word [15:0] $end
$var reg 17 - integrator [16:0] $end
$upscope $end
$scope module DCO_inst $end
$var wire 1 % clk $end
$var wire 1 & rst $end
$var wire 16 * ctrl_word [15:0] $end
$var reg 1 . dco_clk $end
$var reg 32 / phase_acc [31:0] $end
$upscope $end
$scope module DIV $end
$var wire 1 $ clk $end
$var wire 1 & rst $end
$var reg 1 0 div_clk $end
$var reg 32 1 count [31:0] $end
$upscope $end
$upscope $end
$upscope $end
$enddefinitions $end

#0
$dumpvars
0!
1"
0#
0$
0%
1&
0'
0(
x)
b0 *
x+
b0 ,
b0 -
0.
b0 /
00
b0 1
$end

#5000
1!
1%
0)
0+

#10000
0!
0%

#15000
1!
1%

#20000
0!
1#
0%
1'

#25000
1!
1%
1)
1+

#30000
0!
0%

#35000
1!
1%

#40000
0!
0#
0%
0'

#45000
1!
1%
0)
0+

#50000
0!
0%

#55000
1!
1%

#60000
0!
1#
0%
1'

#65000
1!
1%
1)
1+

#70000
0!
0%

#75000
1!
1%

#80000
0!
0#
0%
0'

#85000
1!
1%
0)
0+

#90000
0!
0%

#95000
1!
1%

#100000
0!
0"
1#
0%
0&
1'

#105000
1!
1%
1)
b1111111111111111 *
1+
b1111111111111111 ,
b11111111111111111 -

#110000
0!
0%

#115000
1!
1%
b0 *
b0 ,
b0 -
b1111111111111111 /

#120000
0!
0#
0%
0'

#125000
1!
1%
0)
b1 *
0+
b1 ,
b1 -

#130000
0!
0%

#135000
1!
1%
b0 *
b0 ,
b0 -
b10000000000000000 /

#140000
0!
1#
0%
1'

#145000
1!
1%
1)
b1111111111111111 *
1+
b1111111111111111 ,
b11111111111111111 -

#150000
0!
0%

#155000
1!
1%
b0 *
b0 ,
b0 -
b11111111111111111 /

#160000
0!
0#
0%
0'

#165000
1!
1%
0)
b1 *
0+
b1 ,
b1 -

#170000
0!
0%

#175000
1!
1%
b0 *
b0 ,
b0 -
b100000000000000000 /

#180000
0!
1#
0%
1'

#185000
1!
1%
1)
b1111111111111111 *
1+
b1111111111111111 ,
b11111111111111111 -

#190000
0!
0%

#195000
1!
1%
b0 *
b0 ,
b0 -
b101111111111111111 /

#200000
0!
0#
0%
0'

#205000
1!
1%
0)
b1 *
0+
b1 ,
b1 -

#210000
0!
0%

#215000
1!
1%
b0 *
b0 ,
b0 -
b110000000000000000 /

#220000
0!
1#
0%
1'

#225000
1!
1%
1)
b1111111111111111 *
1+
b1111111111111111 ,
b11111111111111111 -

#230000
0!
0%

#235000
1!
1%
b0 *
b0 ,
b0 -
b111111111111111111 /

#240000
0!
0#
0%
0'

#245000
1!
1%
0)
b1 *
0+
b1 ,
b1 -

#250000
0!
0%

#255000
1!
1%
b0 *
b0 ,
b0 -
b1000000000000000000 /

#260000
0!
1#
0%
1'

#265000
1!
1%
1)
b1111111111111111 *
1+
b1111111111111111 ,
b11111111111111111 -

#270000
0!
0%

#275000
1!
1%
b0 *
b0 ,
b0 -
b1001111111111111111 /

#280000
0!
0#
0%
0'

#285000
1!
1%
0)
b1 *
0+
b1 ,
b1 -

#290000
0!
0%

#295000
1!
1%
b0 *
b0 ,
b0 -
b1010000000000000000 /

#300000
0!
1#
0%
1'

#305000
1!
1%
1)
b1111111111111111 *
1+
b1111111111111111 ,
b11111111111111111 -

#310000
0!
0%

#315000
1!
1%
b0 *
b0 ,
b0 -
b1011111111111111111 /

#320000
0!
0#
0%
0'

#325000
1!
1%
0)
b1 *
0+
b1 ,
b1 -

#330000
0!
0%

#335000
1!
1%
b0 *
b0 ,
b0 -
b1100000000000000000 /

#340000
0!
1#
0%
1'

#345000
1!
1%
1)
b1111111111111111 *
1+
b1111111111111111 ,
b11111111111111111 -

#350000
0!
0%

#355000
1!
1%
b0 *
b0 ,
b0 -
b1101111111111111111 /

#360000
0!
0#
0%
0'

#365000
1!
1%
0)
b1 *
0+
b1 ,
b1 -

#370000
0!
0%

#375000
1!
1%
b0 *
b0 ,
b0 -
b1110000000000000000 /

#380000
0!
1#
0%
1'

#385000
1!
1%
1)
b1111111111111111 *
1+
b1111111111111111 ,
b11111111111111111 -

#390000
0!
0%

#395000
1!
1%
b0 *
b0 ,
b0 -
b1111111111111111111 /

#400000
0!
0#
0%
0'

#405000
1!
1%
0)
b1 *
0+
b1 ,
b1 -

#410000
0!
0%

#415000
1!
1%
b0 *
b0 ,
b0 -
b10000000000000000000 /

#420000
0!
1#
0%
1'

#425000
1!
1%
1)
b1111111111111111 *
1+
b1111111111111111 ,
b11111111111111111 -

#430000
0!
0%

#435000
1!
1%
b0 *
b0 ,
b0 -
b10001111111111111111 /

#440000
0!
0#
0%
0'

#445000
1!
1%
0)
b1 *
0+
b1 ,
b1 -

#450000
0!
0%

#455000
1!
1%
b0 *
b0 ,
b0 -
b10010000000000000000 /

#460000
0!
1#
0%
1'

#465000
1!
1%
1)
b1111111111111111 *
1+
b1111111111111111 ,
b11111111111111111 -

#470000
0!
0%

#475000
1!
1%
b0 *
b0 ,
b0 -
b10011111111111111111 /

#480000
0!
0#
0%
0'

#485000
1!
1%
0)
b1 *
0+
b1 ,
b1 -

#490000
0!
0%

#495000
1!
1%
b0 *
b0 ,
b0 -
b10100000000000000000 /

#500000
0!
1#
0%
1'

#505000
1!
1%
1)
b1111111111111111 *
1+
b1111111111111111 ,
b11111111111111111 -

#510000
0!
0%

#515000
1!
1%
b0 *
b0 ,
b0 -
b10101111111111111111 /

#520000
0!
0#
0%
0'

#525000
1!
1%
0)
b1 *
0+
b1 ,
b1 -

#530000
0!
0%

#535000
1!
1%
b0 *
b0 ,
b0 -
b10110000000000000000 /

#540000
0!
1#
0%
1'

#545000
1!
1%
1)
b1111111111111111 *
1+
b1111111111111111 ,
b11111111111111111 -

#550000
0!
0%

#555000
1!
1%
b0 *
b0 ,
b0 -
b10111111111111111111 /

#560000
0!
0#
0%
0'

#565000
1!
1%
0)
b1 *
0+
b1 ,
b1 -

#570000
0!
0%

#575000
1!
1%
b0 *
b0 ,
b0 -
b11000000000000000000 /

#580000
0!
1#
0%
1'

#585000
1!
1%
1)
b1111111111111111 *
1+
b1111111111111111 ,
b11111111111111111 -

#590000
0!
0%

#595000
1!
1%
b0 *
b0 ,
b0 -
b11001111111111111111 /

#600000
0!
0#
0%
0'

#605000
1!
1%
0)
b1 *
0+
b1 ,
b1 -

#610000
0!
0%

#615000
1!
1%
b0 *
b0 ,
b0 -
b11010000000000000000 /

#620000
0!
1#
0%
1'

#625000
1!
1%
1)
b1111111111111111 *
1+
b1111111111111111 ,
b11111111111111111 -

#630000
0!
0%

#635000
1!
1%
b0 *
b0 ,
b0 -
b11011111111111111111 /

#640000
0!
0#
0%
0'

#645000
1!
1%
0)
b1 *
0+
b1 ,
b1 -

#650000
0!
0%

#655000
1!
1%
b0 *
b0 ,
b0 -
b11100000000000000000 /

#660000
0!
1#
0%
1'

#665000
1!
1%
1)
b1111111111111111 *
1+
b1111111111111111 ,
b11111111111111111 -

#670000
0!
0%

#675000
1!
1%
b0 *
b0 ,
b0 -
b11101111111111111111 /

#680000
0!
0#
0%
0'

#685000
1!
1%
0)
b1 *
0+
b1 ,
b1 -

#690000
0!
0%

#695000
1!
1%
b0 *
b0 ,
b0 -
b11110000000000000000 /

#700000
0!
1#
0%
1'

#705000
1!
1%
1)
b1111111111111111 *
1+
b1111111111111111 ,
b11111111111111111 -

#710000
0!
0%

#715000
1!
1%
b0 *
b0 ,
b0 -
b11111111111111111111 /

#720000
0!
0#
0%
0'

#725000
1!
1%
0)
b1 *
0+
b1 ,
b1 -

#730000
0!
0%

#735000
1!
1%
b0 *
b0 ,
b0 -
b100000000000000000000 /

#740000
0!
1#
0%
1'

#745000
1!
1%
1)
b1111111111111111 *
1+
b1111111111111111 ,
b11111111111111111 -

#750000
0!
0%

#755000
1!
1%
b0 *
b0 ,
b0 -
b100001111111111111111 /

#760000
0!
0#
0%
0'

#765000
1!
1%
0)
b1 *
0+
b1 ,
b1 -

#770000
0!
0%

#775000
1!
1%
b0 *
b0 ,
b0 -
b100010000000000000000 /

#780000
0!
1#
0%
1'

#785000
1!
1%
1)
b1111111111111111 *
1+
b1111111111111111 ,
b11111111111111111 -

#790000
0!
0%

#795000
1!
1%
b0 *
b0 ,
b0 -
b100011111111111111111 /

#800000
0!
0#
0%
0'

#805000
1!
1%
0)
b1 *
0+
b1 ,
b1 -

#810000
0!
0%

#815000
1!
1%
b0 *
b0 ,
b0 -
b100100000000000000000 /

#820000
0!
1#
0%
1'

#825000
1!
1%
1)
b1111111111111111 *
1+
b1111111111111111 ,
b11111111111111111 -

#830000
0!
0%

#835000
1!
1%
b0 *
b0 ,
b0 -
b100101111111111111111 /

#840000
0!
0#
0%
0'

#845000
1!
1%
0)
b1 *
0+
b1 ,
b1 -

#850000
0!
0%

#855000
1!
1%
b0 *
b0 ,
b0 -
b100110000000000000000 /

#860000
0!
1#
0%
1'

#865000
1!
1%
1)
b1111111111111111 *
1+
b1111111111111111 ,
b11111111111111111 -

#870000
0!
0%

#875000
1!
1%
b0 *
b0 ,
b0 -
b100111111111111111111 /

#880000
0!
0#
0%
0'

#885000
1!
1%
0)
b1 *
0+
b1 ,
b1 -

#890000
0!
0%

#895000
1!
1%
b0 *
b0 ,
b0 -
b101000000000000000000 /

#900000
0!
1#
0%
1'

#905000
1!
1%
1)
b1111111111111111 *
1+
b1111111111111111 ,
b11111111111111111 -

#910000
0!
0%

#915000
1!
1%
b0 *
b0 ,
b0 -
b101001111111111111111 /

#920000
0!
0#
0%
0'

#925000
1!
1%
0)
b1 *
0+
b1 ,
b1 -

#930000
0!
0%

#935000
1!
1%
b0 *
b0 ,
b0 -
b101010000000000000000 /

#940000
0!
1#
0%
1'

#945000
1!
1%
1)
b1111111111111111 *
1+
b1111111111111111 ,
b11111111111111111 -

#950000
0!
0%

#955000
1!
1%
b0 *
b0 ,
b0 -
b101011111111111111111 /

#960000
0!
0#
0%
0'

#965000
1!
1%
0)
b1 *
0+
b1 ,
b1 -

#970000
0!
0%

#975000
1!
1%
b0 *
b0 ,
b0 -
b101100000000000000000 /

#980000
0!
1#
0%
1'

#985000
1!
1%
1)
b1111111111111111 *
1+
b1111111111111111 ,
b11111111111111111 -

#990000
0!
0%

#995000
1!
1%
b0 *
b0 ,
b0 -
b101101111111111111111 /

